<!DOCTYPE SceneVersion>
<SceneVersion VersionName="boc" ID="1">
 <Element Name="LEG_L" ID="4" Folder="LEG_L">
  <Drawing Key="" Name="1" Version="1"/>
  <Drawing Key="" Name="2" Version="1"/>
 </Element>
 <Element Name="LEG_R" ID="5" Folder="LEG_R">
  <Drawing Key="" Name="1" Version="1"/>
  <Drawing Key="" Name="2" Version="1"/>
  <Drawing Key="" Name="3" Version="1"/>
 </Element>
 <Element Name="FOOT_L" ID="6" Folder="FOOT_L.6">
  <Drawing Key="" Name="1" Version="1"/>
  <Drawing Key="" Name="2" Version="1"/>
 </Element>
 <Element Name="FOOT_R" ID="7" Folder="FOOT_R.7">
  <Drawing Key="" Name="1" Version="1"/>
  <Drawing Key="" Name="2" Version="1"/>
  <Drawing Key="" Name="3" Version="1"/>
 </Element>
 <Element Name="Pelvis" ID="8" Folder="Pelvis">
  <Drawing Key="" Name="1" Version="1"/>
  <Drawing Key="" Name="2" Version="1"/>
 </Element>
 <Element Name="ARM_R" ID="9" Folder="ARM_R">
  <Drawing Key="" Name="1" Version="1"/>
  <Drawing Key="" Name="2" Version="1"/>
 </Element>
 <Element Name="ARM_L" ID="10" Folder="ARM_L">
  <Drawing Key="" Name="1" Version="1"/>
  <Drawing Key="" Name="2" Version="1"/>
 </Element>
 <Element Name="HAND_L" ID="11" Folder="HAND_L">
  <Drawing Key="" Name="1" Version="1"/>
  <Drawing Key="" Name="2" Version="1"/>
 </Element>
 <Element Name="HAND_Ri" ID="12" Folder="HAND_Ri">
  <Drawing Key="" Name="1" Version="1"/>
  <Drawing Key="" Name="2" Version="1"/>
 </Element>
 <Element Name="Torso" ID="13" Folder="Torso">
  <Drawing Key="" Name="1" Version="1"/>
  <Drawing Key="" Name="2" Version="1"/>
 </Element>
 <Element Name="NECK" ID="14" Folder="NECK">
  <Drawing Key="" Name="1" Version="1"/>
  <Drawing Key="" Name="2" Version="1"/>
 </Element>
 <Element Name="HEAD" ID="15" Folder="HEAD">
  <Drawing Key="" Name="1" Version="1"/>
  <Drawing Key="" Name="2" Version="1"/>
 </Element>
 <Element Name="belt" ID="17" Folder="belt">
  <Drawing Key="" Name="1" Version="1"/>
  <Drawing Key="" Name="2" Version="1"/>
 </Element>
 <Element Name="skirt" ID="18" Folder="skirt">
  <Drawing Key="" Name="1" Version="1"/>
  <Drawing Key="" Name="2" Version="1"/>
 </Element>
 <Element Name="skirt2" ID="19" Folder="skirt2">
  <Drawing Key="" Name="1" Version="1"/>
  <Drawing Key="" Name="2" Version="1"/>
 </Element>
 <Element Name="skirt3" ID="20" Folder="skirt3">
  <Drawing Key="" Name="1" Version="1"/>
  <Drawing Key="" Name="2" Version="1"/>
 </Element>
 <Element Name="line" ID="21" Folder="line">
  <Drawing Key="" Name="1" Version="1"/>
 </Element>
 <Element Name="pnng_model_JASOn" ID="22" Folder="pnng_model_JASOn">
  <Drawing Key="" Name="1" Version="1"/>
 </Element>
 <Element Name="Drawing" ID="23" Folder="Drawing"/>
 <Element Name="Jasons_sword" ID="24" Folder="Jasons_sword">
  <Drawing Key="" Name="1" Version="1"/>
 </Element>
 <Element Name="Jaso_inside_shield" ID="25" Folder="Jaso_inside_shield">
  <Drawing Key="" Name="1" Version="1"/>
 </Element>
 <Element Name="Jasons_shield_in_profile" ID="28" Folder="Jasons_shield_in_profile">
  <Drawing Key="" Name="1" Version="1"/>
 </Element>
 <Element Name="sdsd" ID="31" Folder="sdsd"/>
 <Element Name="sdsd_1" ID="32" Folder="sdsd_1"/>
</SceneVersion>
